                INPP
                AMEM 2
                DSVS R00
R00:            NADA
                CRCT 1
                ARMZ 0, 0
                CRCT 2
                ARMZ 0, 1
R01:            NADA
                CRVL 0, 0
                CRVL 0, 1
                CMME
                DSVF R02
                CRVL 0, 0
                CRCT 1
                SOMA
                ARMZ 0, 0
                DSVS R01
R02:            NADA
                DMEM 2
                PARA
